digraph Tree {
node [shape=box, style="filled, rounded", color="black", fontname=helvetica] ;
edge [fontname=helvetica] ;
rankdir=LR ;
0 [label="HOUR <= 7.5\ngini = 0.466\nsamples = 100.0%\nvalue = [0.371, 0.629]\nclass = DOA", fillcolor="#399de569"] ;
1 [label="VSPD_LIM <= 42.5\ngini = 0.398\nsamples = 34.8%\nvalue = [0.274, 0.726]\nclass = DOA", fillcolor="#399de59f"] ;
0 -> 1 [labeldistance=2.5, labelangle=-45, headlabel="True"] ;
2 [label="AGE <= 61.5\ngini = 0.449\nsamples = 10.9%\nvalue = [0.341, 0.659]\nclass = DOA", fillcolor="#399de57b"] ;
1 -> 2 ;
3 [label="BODY_TYP <= 66.5\ngini = 0.441\nsamples = 10.2%\nvalue = [0.329, 0.671]\nclass = DOA", fillcolor="#399de582"] ;
2 -> 3 ;
4 [label="gini = 0.423\nsamples = 8.2%\nvalue = [0.304, 0.696]\nclass = DOA", fillcolor="#399de590"] ;
3 -> 4 ;
5 [label="gini = 0.491\nsamples = 1.9%\nvalue = [0.433, 0.567]\nclass = DOA", fillcolor="#399de53d"] ;
3 -> 5 ;
6 [label="HOUR <= -0.5\ngini = 0.5\nsamples = 0.7%\nvalue = [0.515, 0.485]\nclass = !DOA", fillcolor="#e581390f"] ;
2 -> 6 ;
7 [label="gini = 0.444\nsamples = 0.1%\nvalue = [0.333, 0.667]\nclass = DOA", fillcolor="#399de57f"] ;
6 -> 7 ;
8 [label="gini = 0.496\nsamples = 0.6%\nvalue = [0.543, 0.457]\nclass = !DOA", fillcolor="#e5813929"] ;
6 -> 8 ;
9 [label="REST_USE <= 7.5\ngini = 0.368\nsamples = 23.9%\nvalue = [0.244, 0.756]\nclass = DOA", fillcolor="#399de5ad"] ;
1 -> 9 ;
10 [label="AGE <= 60.5\ngini = 0.356\nsamples = 21.8%\nvalue = [0.232, 0.768]\nclass = DOA", fillcolor="#399de5b2"] ;
9 -> 10 ;
11 [label="gini = 0.344\nsamples = 19.9%\nvalue = [0.22, 0.78]\nclass = DOA", fillcolor="#399de5b7"] ;
10 -> 11 ;
12 [label="gini = 0.454\nsamples = 2.0%\nvalue = [0.349, 0.651]\nclass = DOA", fillcolor="#399de576"] ;
10 -> 12 ;
13 [label="HOUR <= -0.5\ngini = 0.463\nsamples = 2.1%\nvalue = [0.364, 0.636]\nclass = DOA", fillcolor="#399de56d"] ;
9 -> 13 ;
14 [label="gini = 0.107\nsamples = 0.1%\nvalue = [0.057, 0.943]\nclass = DOA", fillcolor="#399de5f0"] ;
13 -> 14 ;
15 [label="gini = 0.472\nsamples = 2.0%\nvalue = [0.381, 0.619]\nclass = DOA", fillcolor="#399de562"] ;
13 -> 15 ;
16 [label="BODY_TYP <= 75.0\ngini = 0.488\nsamples = 65.2%\nvalue = [0.422, 0.578]\nclass = DOA", fillcolor="#399de545"] ;
0 -> 16 [labeldistance=2.5, labelangle=45, headlabel="False"] ;
17 [label="AGE <= 66.5\ngini = 0.474\nsamples = 49.8%\nvalue = [0.387, 0.613]\nclass = DOA", fillcolor="#399de55e"] ;
16 -> 17 ;
18 [label="VSPD_LIM <= 42.5\ngini = 0.454\nsamples = 41.2%\nvalue = [0.349, 0.651]\nclass = DOA", fillcolor="#399de576"] ;
17 -> 18 ;
19 [label="gini = 0.489\nsamples = 10.9%\nvalue = [0.426, 0.574]\nclass = DOA", fillcolor="#399de542"] ;
18 -> 19 ;
20 [label="gini = 0.436\nsamples = 30.3%\nvalue = [0.321, 0.679]\nclass = DOA", fillcolor="#399de586"] ;
18 -> 20 ;
21 [label="VSPD_LIM <= 47.5\ngini = 0.491\nsamples = 8.5%\nvalue = [0.568, 0.432]\nclass = !DOA", fillcolor="#e581393d"] ;
17 -> 21 ;
22 [label="gini = 0.439\nsamples = 3.9%\nvalue = [0.675, 0.325]\nclass = !DOA", fillcolor="#e5813984"] ;
21 -> 22 ;
23 [label="gini = 0.499\nsamples = 4.6%\nvalue = [0.479, 0.521]\nclass = DOA", fillcolor="#399de514"] ;
21 -> 23 ;
24 [label="VSPD_LIM <= 52.5\ngini = 0.497\nsamples = 15.4%\nvalue = [0.537, 0.463]\nclass = !DOA", fillcolor="#e5813923"] ;
16 -> 24 ;
25 [label="BODY_TYP <= 80.5\ngini = 0.484\nsamples = 8.7%\nvalue = [0.588, 0.412]\nclass = !DOA", fillcolor="#e581394c"] ;
24 -> 25 ;
26 [label="gini = 0.489\nsamples = 8.0%\nvalue = [0.575, 0.425]\nclass = !DOA", fillcolor="#e5813942"] ;
25 -> 26 ;
27 [label="gini = 0.364\nsamples = 0.6%\nvalue = [0.761, 0.239]\nclass = !DOA", fillcolor="#e58139af"] ;
25 -> 27 ;
28 [label="AGE <= 44.5\ngini = 0.498\nsamples = 6.8%\nvalue = [0.471, 0.529]\nclass = DOA", fillcolor="#399de51c"] ;
24 -> 28 ;
29 [label="gini = 0.481\nsamples = 2.6%\nvalue = [0.403, 0.597]\nclass = DOA", fillcolor="#399de553"] ;
28 -> 29 ;
30 [label="gini = 0.5\nsamples = 4.1%\nvalue = [0.515, 0.485]\nclass = !DOA", fillcolor="#e581390f"] ;
28 -> 30 ;
}