FEATURE,VALUE,COUNT,PERCENT,PERCENT_DOA
DAY_WEEK,1,11252,18.1551,63.9264
DAY_WEEK,2,7532,12.1529,62.7456
DAY_WEEK,3,7063,11.3962,62.0133
DAY_WEEK,4,7261,11.7156,60.8318
DAY_WEEK,5,7820,12.6176,62.711
DAY_WEEK,6,8967,14.4683,62.9196
DAY_WEEK,7,12082,19.4943,63.4415
MONTH,1,4274,6.8961,64.2255
MONTH,2,3738,6.0313,63.9914
MONTH,3,4606,7.4318,63.135
MONTH,4,4974,8.0256,60.7961
MONTH,5,5739,9.2599,62.0317
MONTH,6,5609,9.0501,61.2052
MONTH,7,5908,9.5326,62.4408
MONTH,8,5941,9.5858,63.3227
MONTH,9,5661,9.134,61.8972
MONTH,10,5630,9.084,63.7655
MONTH,11,5053,8.153,63.5266
MONTH,12,4844,7.8158,64.2031
HOUR,-1,1093,1.7636,86.2763
HOUR,0,3207,5.1745,70.4708
HOUR,1,3145,5.0745,71.6375
HOUR,2,3500,5.6473,73.6857
HOUR,3,2542,4.1015,74.5476
HOUR,4,1931,3.1157,73.6406
HOUR,5,1935,3.1221,72.2481
HOUR,6,2152,3.4723,70.0743
HOUR,7,2032,3.2786,66.6831
HOUR,8,1684,2.7171,61.6983
HOUR,9,1633,2.6348,57.3791
HOUR,10,1851,2.9866,54.6191
HOUR,11,2139,3.4513,53.4829
HOUR,12,2191,3.5352,53.0808
HOUR,13,2403,3.8772,51.1028
HOUR,14,2574,4.1532,54.7786
HOUR,15,2723,4.3936,54.0947
HOUR,16,2908,4.6921,56.0179
HOUR,17,2836,4.5759,54.3018
HOUR,18,2885,4.655,56.5685
HOUR,19,2935,4.7356,58.3305
HOUR,20,2800,4.5178,58.7143
HOUR,21,2854,4.6049,61.4926
HOUR,22,2995,4.8324,65.2087
HOUR,23,3029,4.8873,67.481
WEATHER,-1,1231,1.9862,74.0861
WEATHER,1,45099,72.7673,61.9637
WEATHER,2,3891,6.2781,64.9447
WEATHER,3,173,0.27914,63.5838
WEATHER,4,665,1.073,64.3609
WEATHER,5,738,1.1908,71.1382
WEATHER,6,126,0.2033,61.1111
WEATHER,7,20,0.03227,55
WEATHER,8,101,0.16296,71.2871
WEATHER,10,9877,15.9366,63.5821
WEATHER,11,36,0.058086,66.6667
WEATHER,12,20,0.03227,80
SEX,-1,20,0.03227,85
SEX,1,50302,81.1624,63.0015
SEX,2,11655,18.8054,61.9391
AGE,-1,39,0.062927,87.1795
AGE,2,1,0.0016135,0
AGE,5,1,0.0016135,0
AGE,6,1,0.0016135,0
AGE,7,3,0.0048405,0
AGE,8,2,0.003227,100
AGE,9,2,0.003227,50
AGE,10,5,0.0080675,60
AGE,11,8,0.012908,75
AGE,12,8,0.012908,12.5
AGE,13,19,0.030657,36.8421
AGE,14,31,0.050019,51.6129
AGE,15,74,0.1194,52.7027
AGE,16,378,0.6099,67.9894
AGE,17,643,1.0375,67.1851
AGE,18,1108,1.7878,66.426
AGE,19,1335,2.154,66.367
AGE,20,1393,2.2476,69.2032
AGE,21,1821,2.9382,68.8083
AGE,22,1723,2.7801,70.0522
AGE,23,1660,2.6784,66.3253
AGE,24,1650,2.6623,67.4545
AGE,25,1605,2.5897,68.4112
AGE,26,1387,2.2379,67.0512
AGE,27,1411,2.2767,69.3125
AGE,28,1325,2.1379,66.4906
AGE,29,1239,1.9991,68.9266
AGE,30,1183,1.9088,68.3855
AGE,31,1178,1.9007,72.4109
AGE,32,1098,1.7716,68.4882
AGE,33,1081,1.7442,68.2701
AGE,34,1033,1.6667,68.3446
AGE,35,1036,1.6716,69.305
AGE,36,1028,1.6587,68.1907
AGE,37,907,1.4634,66.1521
AGE,38,943,1.5215,65.5355
AGE,39,981,1.5828,67.2783
AGE,40,980,1.5812,66.7347
AGE,41,997,1.6087,65.7974
AGE,42,930,1.5006,68.8172
AGE,43,951,1.5344,64.0379
AGE,44,1002,1.6167,64.7705
AGE,45,991,1.599,64.884
AGE,46,1009,1.628,64.5193
AGE,47,1062,1.7135,63.7476
AGE,48,1070,1.7264,62.9907
AGE,49,1094,1.7652,64.2596
AGE,50,1077,1.7377,62.3955
AGE,51,1118,1.8039,63.4168
AGE,52,1168,1.8846,63.1849
AGE,53,1089,1.7571,60.9734
AGE,54,1070,1.7264,62.7103
AGE,55,1066,1.72,60.3189
AGE,56,1009,1.628,60.0595
AGE,57,929,1.4989,61.3563
AGE,58,966,1.5586,59.7308
AGE,59,895,1.4441,58.1006
AGE,60,852,1.3747,57.6291
AGE,61,829,1.3376,57.6598
AGE,62,765,1.2343,57.9085
AGE,63,776,1.2521,53.866
AGE,64,686,1.1069,59.7668
AGE,65,661,1.0665,54.9168
AGE,66,577,0.93099,57.0191
AGE,67,575,0.92776,51.8261
AGE,68,541,0.8729,53.4196
AGE,69,494,0.79707,50.8097
AGE,70,440,0.70994,52.7273
AGE,71,419,0.67606,48.21
AGE,72,383,0.61797,47.5196
AGE,73,344,0.55504,45.9302
AGE,74,330,0.53246,44.8485
AGE,75,321,0.51793,46.4174
AGE,76,293,0.47276,44.0273
AGE,77,268,0.43242,44.403
AGE,78,255,0.41144,44.3137
AGE,79,270,0.43565,45.1852
AGE,80,293,0.47276,38.2253
AGE,81,234,0.37756,41.453
AGE,82,225,0.36304,35.1111
AGE,83,187,0.30172,36.3636
AGE,84,207,0.33399,36.2319
AGE,85,154,0.24848,36.3636
AGE,86,161,0.25977,27.9503
AGE,87,127,0.20491,33.8583
AGE,88,105,0.16942,35.2381
AGE,89,108,0.17426,30.5556
AGE,90,82,0.13231,24.3902
AGE,91,62,0.10004,35.4839
AGE,92,42,0.067767,21.4286
AGE,93,40,0.06454,32.5
AGE,94,18,0.029043,27.7778
AGE,95,19,0.030657,21.0526
AGE,96,9,0.014522,22.2222
AGE,97,7,0.011295,42.8571
AGE,98,4,0.006454,0
AGE,101,1,0.0016135,0
RACE,-1,6415,10.3506,57.5994
RACE,1,47172,76.1121,63.419
RACE,2,6660,10.7459,62.4174
RACE,3,891,1.4376,73.8496
RACE,4,68,0.10972,52.9412
RACE,5,52,0.083902,51.9231
RACE,6,70,0.11295,48.5714
RACE,7,98,0.15812,57.1429
RACE,18,92,0.14844,66.3043
RACE,19,115,0.18555,67.8261
RACE,28,59,0.095197,57.6271
RACE,38,10,0.016135,40
RACE,48,52,0.083902,61.5385
RACE,58,9,0.014522,66.6667
RACE,68,124,0.20007,62.9032
RACE,78,90,0.14522,61.1111
REST_USE,-1,4314,6.9606,63.0274
REST_USE,0,113,0.18233,70.7965
REST_USE,1,134,0.21621,67.1642
REST_USE,2,269,0.43403,74.7212
REST_USE,3,15570,25.1222,62.9544
REST_USE,5,3726,6.0119,52.6838
REST_USE,7,27751,44.7763,68.7867
REST_USE,8,197,0.31786,53.2995
REST_USE,16,1241,2.0024,51.0073
REST_USE,17,6420,10.3587,47.6791
REST_USE,19,2088,3.369,53.1609
REST_USE,29,154,0.24848,48.0519
REST_MIS,0,61723,99.5902,62.787
REST_MIS,1,254,0.40983,68.1102
DRINKING,-1,23209,37.4478,64.6603
DRINKING,0,21145,34.1175,55.8619
DRINKING,1,17623,28.4347,68.7057
DRUGS,-1,32926,53.1262,64.1621
DRUGS,0,23624,38.1174,59.9136
DRUGS,1,5427,8.7565,67.201
BODY_TYP,-1,1712,2.7623,53.271
BODY_TYP,1,556,0.89711,68.5252
BODY_TYP,2,3680,5.9377,68.5326
BODY_TYP,3,895,1.4441,68.1564
BODY_TYP,4,15486,24.9867,62.521
BODY_TYP,5,454,0.73253,61.4537
BODY_TYP,6,1164,1.8781,61.512
BODY_TYP,7,6,0.009681,33.3333
BODY_TYP,8,16,0.025816,87.5
BODY_TYP,9,84,0.13553,63.0952
BODY_TYP,10,26,0.041951,65.3846
BODY_TYP,14,6943,11.2025,64.3238
BODY_TYP,15,1759,2.8381,71.9727
BODY_TYP,16,360,0.58086,66.1111
BODY_TYP,17,8,0.012908,75
BODY_TYP,19,5,0.0080675,80
BODY_TYP,20,1280,2.0653,61.875
BODY_TYP,21,376,0.60668,67.2872
BODY_TYP,22,12,0.019362,91.6667
BODY_TYP,28,12,0.019362,75
BODY_TYP,29,12,0.019362,83.3333
BODY_TYP,30,3477,5.6101,65.6601
BODY_TYP,31,8686,14.0149,71.7707
BODY_TYP,32,30,0.048405,53.3333
BODY_TYP,39,20,0.03227,60
BODY_TYP,40,74,0.1194,71.6216
BODY_TYP,45,1,0.0016135,100
BODY_TYP,48,9,0.014522,66.6667
BODY_TYP,49,27,0.043565,51.8519
BODY_TYP,50,4,0.006454,75
BODY_TYP,51,5,0.0080675,60
BODY_TYP,52,2,0.003227,50
BODY_TYP,58,1,0.0016135,100
BODY_TYP,60,4,0.006454,75
BODY_TYP,61,109,0.17587,65.1376
BODY_TYP,62,118,0.19039,74.5763
BODY_TYP,63,415,0.6696,73.012
BODY_TYP,64,30,0.048405,83.3333
BODY_TYP,66,1472,2.3751,80.9103
BODY_TYP,67,121,0.19523,76.8595
BODY_TYP,71,4,0.006454,100
BODY_TYP,72,5,0.0080675,100
BODY_TYP,78,9,0.014522,33.3333
BODY_TYP,79,1,0.0016135,0
BODY_TYP,80,11860,19.1361,51.0961
BODY_TYP,81,266,0.42919,30.0752
BODY_TYP,82,59,0.095197,49.1525
BODY_TYP,83,96,0.1549,36.4583
BODY_TYP,88,173,0.27914,26.5896
BODY_TYP,89,53,0.085516,39.6226
TRAV_SP,-1,39977,64.503,62.526
TRAV_SP,0,275,0.44371,59.2727
TRAV_SP,1,12,0.019362,66.6667
TRAV_SP,2,2,0.003227,50
TRAV_SP,3,3,0.0048405,66.6667
TRAV_SP,4,4,0.006454,25
TRAV_SP,5,64,0.10326,59.375
TRAV_SP,6,1,0.0016135,100
TRAV_SP,7,4,0.006454,50
TRAV_SP,8,4,0.006454,75
TRAV_SP,9,2,0.003227,50
TRAV_SP,10,86,0.13876,55.814
TRAV_SP,11,2,0.003227,50
TRAV_SP,12,1,0.0016135,0
TRAV_SP,13,6,0.009681,33.3333
TRAV_SP,15,104,0.1678,46.1538
TRAV_SP,16,3,0.0048405,33.3333
TRAV_SP,17,6,0.009681,16.6667
TRAV_SP,18,8,0.012908,25
TRAV_SP,19,4,0.006454,50
TRAV_SP,20,140,0.22589,37.1429
TRAV_SP,22,9,0.014522,44.4444
TRAV_SP,23,10,0.016135,20
TRAV_SP,24,7,0.011295,57.1429
TRAV_SP,25,293,0.47276,39.5904
TRAV_SP,26,6,0.009681,66.6667
TRAV_SP,27,18,0.029043,33.3333
TRAV_SP,28,24,0.038724,29.1667
TRAV_SP,29,8,0.012908,37.5
TRAV_SP,30,468,0.75512,38.0342
TRAV_SP,31,9,0.014522,77.7778
TRAV_SP,32,18,0.029043,44.4444
TRAV_SP,33,29,0.046792,41.3793
TRAV_SP,34,12,0.019362,33.3333
TRAV_SP,35,756,1.2198,44.4444
TRAV_SP,36,11,0.017749,54.5455
TRAV_SP,37,28,0.045178,50
TRAV_SP,38,32,0.051632,53.125
TRAV_SP,39,27,0.043565,44.4444
TRAV_SP,40,829,1.3376,50.3016
TRAV_SP,41,22,0.035497,68.1818
TRAV_SP,42,31,0.050019,67.7419
TRAV_SP,43,56,0.090356,46.4286
TRAV_SP,44,21,0.033884,57.1429
TRAV_SP,45,1671,2.6962,53.5607
TRAV_SP,46,30,0.048405,56.6667
TRAV_SP,47,44,0.070994,47.7273
TRAV_SP,48,65,0.10488,47.6923
TRAV_SP,49,19,0.030657,57.8947
TRAV_SP,50,1409,2.2734,59.5458
TRAV_SP,51,26,0.041951,53.8462
TRAV_SP,52,53,0.085516,62.2642
TRAV_SP,53,120,0.19362,57.5
TRAV_SP,54,41,0.066154,60.9756
TRAV_SP,55,3414,5.5085,66.0808
TRAV_SP,56,50,0.080675,70
TRAV_SP,57,74,0.1194,67.5676
TRAV_SP,58,96,0.1549,62.5
TRAV_SP,59,54,0.087129,72.2222
TRAV_SP,60,1839,2.9672,66.1773
TRAV_SP,61,43,0.069381,62.7907
TRAV_SP,62,63,0.10165,66.6667
TRAV_SP,63,111,0.1791,64.8649
TRAV_SP,64,57,0.09197,75.4386
TRAV_SP,65,2016,3.2528,68.1052
TRAV_SP,66,60,0.09681,80
TRAV_SP,67,75,0.12101,73.3333
TRAV_SP,68,119,0.19201,65.5462
TRAV_SP,69,52,0.083902,61.5385
TRAV_SP,70,1931,3.1157,70.0673
TRAV_SP,71,54,0.087129,77.7778
TRAV_SP,72,49,0.079062,69.3878
TRAV_SP,73,112,0.18071,66.0714
TRAV_SP,74,35,0.056473,80
TRAV_SP,75,914,1.4747,74.8359
TRAV_SP,76,54,0.087129,83.3333
TRAV_SP,77,50,0.080675,64
TRAV_SP,78,63,0.10165,69.8413
TRAV_SP,79,43,0.069381,74.4186
TRAV_SP,80,987,1.5925,70.1114
TRAV_SP,81,31,0.050019,80.6452
TRAV_SP,82,30,0.048405,73.3333
TRAV_SP,83,47,0.075835,80.8511
TRAV_SP,84,23,0.037111,60.8696
TRAV_SP,85,317,0.51148,72.5552
TRAV_SP,86,25,0.040338,68
TRAV_SP,87,27,0.043565,62.963
TRAV_SP,88,33,0.053246,72.7273
TRAV_SP,89,34,0.054859,73.5294
TRAV_SP,90,463,0.74705,73.2181
TRAV_SP,91,25,0.040338,84
TRAV_SP,92,24,0.038724,62.5
TRAV_SP,93,21,0.033884,85.7143
TRAV_SP,94,21,0.033884,76.1905
TRAV_SP,95,87,0.14037,73.5632
TRAV_SP,96,19,0.030657,73.6842
TRAV_SP,97,43,0.069381,86.0465
TRAV_SP,98,648,1.0455,61.7284
TRAV_SP,99,28,0.045178,71.4286
TRAV_SP,100,407,0.6567,74.2015
TRAV_SP,101,17,0.02743,70.5882
TRAV_SP,102,11,0.017749,54.5455
TRAV_SP,103,11,0.017749,63.6364
TRAV_SP,104,11,0.017749,54.5455
TRAV_SP,105,24,0.038724,70.8333
TRAV_SP,106,15,0.024203,66.6667
TRAV_SP,107,6,0.009681,83.3333
TRAV_SP,108,7,0.011295,57.1429
TRAV_SP,109,6,0.009681,66.6667
TRAV_SP,110,57,0.09197,82.4561
TRAV_SP,111,5,0.0080675,80
TRAV_SP,112,7,0.011295,71.4286
TRAV_SP,113,4,0.006454,75
TRAV_SP,114,7,0.011295,100
TRAV_SP,115,12,0.019362,83.3333
TRAV_SP,116,2,0.003227,50
TRAV_SP,117,4,0.006454,100
TRAV_SP,118,1,0.0016135,100
TRAV_SP,119,3,0.0048405,100
TRAV_SP,120,36,0.058086,72.2222
TRAV_SP,122,2,0.003227,0
TRAV_SP,123,1,0.0016135,0
TRAV_SP,124,2,0.003227,50
TRAV_SP,125,10,0.016135,80
TRAV_SP,130,12,0.019362,75
TRAV_SP,132,1,0.0016135,100
TRAV_SP,133,2,0.003227,100
TRAV_SP,134,2,0.003227,100
TRAV_SP,135,2,0.003227,50
TRAV_SP,137,1,0.0016135,100
TRAV_SP,140,5,0.0080675,100
TRAV_SP,141,1,0.0016135,100
TRAV_SP,144,1,0.0016135,0
TRAV_SP,147,1,0.0016135,100
TRAV_SP,148,1,0.0016135,100
TRAV_SP,150,8,0.012908,87.5
TRAV_SP,151,1,0.0016135,100
VSPD_LIM,-1,1759,2.8381,53.0415
VSPD_LIM,0,194,0.31302,56.701
VSPD_LIM,5,17,0.02743,58.8235
VSPD_LIM,10,39,0.062927,64.1026
VSPD_LIM,15,140,0.22589,47.8571
VSPD_LIM,20,241,0.38885,50.6224
VSPD_LIM,25,2928,4.7243,46.8238
VSPD_LIM,30,3357,5.4165,50.7
VSPD_LIM,35,6640,10.7137,57.741
VSPD_LIM,40,3575,5.7683,57.7622
VSPD_LIM,45,8612,13.8955,62.68
VSPD_LIM,50,2776,4.4791,63.9769
VSPD_LIM,55,19827,31.9909,67.7006
VSPD_LIM,60,2063,3.3287,66.1658
VSPD_LIM,65,5239,8.4531,67.1693
VSPD_LIM,70,3397,5.4811,70.0029
VSPD_LIM,75,1061,1.7119,71.2535
VSPD_LIM,80,112,0.18071,65.1786
PREV_ACC,-1,6092,9.8295,64.1005
PREV_ACC,0,46982,75.8055,62.7751
PREV_ACC,1,7056,11.3849,62.089
PREV_ACC,2,1414,2.2815,62.0934
PREV_ACC,3,319,0.51471,62.069
PREV_ACC,4,76,0.12263,65.7895
PREV_ACC,5,26,0.041951,57.6923
PREV_ACC,6,5,0.0080675,60
PREV_ACC,7,5,0.0080675,40
PREV_ACC,8,2,0.003227,100
PREV_SUS,-1,946,1.5264,63.1078
PREV_SUS,0,49339,79.6086,62.0746
PREV_SUS,1,5508,8.8872,65.5229
PREV_SUS,2,2525,4.0741,66.8119
PREV_SUS,3,1252,2.0201,67.0927
PREV_SUS,4,776,1.2521,64.9485
PREV_SUS,5,501,0.80836,65.6687
PREV_SUS,6,258,0.41628,63.5659
PREV_SUS,7,210,0.33884,61.4286
PREV_SUS,8,152,0.24525,65.1316
PREV_SUS,9,110,0.17749,69.0909
PREV_SUS,10,104,0.1678,72.1154
PREV_SUS,11,51,0.082289,60.7843
PREV_SUS,12,41,0.066154,68.2927
PREV_SUS,13,29,0.046792,68.9655
PREV_SUS,14,36,0.058086,72.2222
PREV_SUS,15,22,0.035497,54.5455
PREV_SUS,16,13,0.020976,69.2308
PREV_SUS,17,11,0.017749,63.6364
PREV_SUS,18,18,0.029043,77.7778
PREV_SUS,19,14,0.022589,42.8571
PREV_SUS,20,5,0.0080675,20
PREV_SUS,21,9,0.014522,77.7778
PREV_SUS,22,5,0.0080675,40
PREV_SUS,23,8,0.012908,62.5
PREV_SUS,24,7,0.011295,71.4286
PREV_SUS,25,4,0.006454,100
PREV_SUS,26,3,0.0048405,66.6667
PREV_SUS,27,2,0.003227,50
PREV_SUS,28,3,0.0048405,66.6667
PREV_SUS,29,4,0.006454,75
PREV_SUS,31,1,0.0016135,100
PREV_SUS,33,2,0.003227,50
PREV_SUS,34,2,0.003227,50
PREV_SUS,35,2,0.003227,100
PREV_SUS,37,1,0.0016135,100
PREV_SUS,49,1,0.0016135,0
PREV_SUS,59,1,0.0016135,0
PREV_SUS,63,1,0.0016135,0
PREV_DWI,-1,946,1.5264,63.1078
PREV_DWI,0,57644,93.0087,62.4696
PREV_DWI,1,2838,4.5791,67.759
PREV_DWI,2,456,0.73576,71.7105
PREV_DWI,3,59,0.095197,81.3559
PREV_DWI,4,23,0.037111,65.2174
PREV_DWI,5,9,0.014522,66.6667
PREV_DWI,6,2,0.003227,50
PREV_SPD,-1,946,1.5264,63.1078
PREV_SPD,0,48801,78.7405,62.1032
PREV_SPD,1,8647,13.9519,65.6991
PREV_SPD,2,2390,3.8563,66.4017
PREV_SPD,3,750,1.2101,63.0667
PREV_SPD,4,277,0.44694,64.6209
PREV_SPD,5,80,0.12908,55
PREV_SPD,6,52,0.083902,69.2308
PREV_SPD,7,20,0.03227,70
PREV_SPD,8,7,0.011295,57.1429
PREV_SPD,9,4,0.006454,75
PREV_SPD,10,3,0.0048405,66.6667
AIR_BAG,-1,3146,5.0761,75.5245
AIR_BAG,0,18824,30.3726,55.748
AIR_BAG,1,16766,27.052,62.6983
AIR_BAG,2,736,1.1875,66.8478
AIR_BAG,3,97,0.15651,65.9794
AIR_BAG,7,47,0.075835,63.8298
AIR_BAG,8,3942,6.3604,64.3836
AIR_BAG,9,1857,2.9963,66.6667
AIR_BAG,20,16553,26.7083,67.5165
AIR_BAG,28,9,0.014522,77.7778
DOA,0,23050,37.1912,0
DOA,1,38927,62.8088,100
